…
``` r
# install.packages("devtools")
devtools::install_github("celehs/DPH")
```

``` r
library(DPH)
```

Here is a simulated example which shows you how to use DPH:

``` r
sim_data
#> # A tibble: 1,000 x 4
#>     time status pred1 pred2
#>    <int>  <int> <dbl> <int>
#>  1     5      1  1.37     1
#>  2     5      1  2.18     0
#>  3     1      1  1.16     0
#>  4     1      1  3.60     0
#>  5     2      1  2.33     1
#>  6     3      1  1.18     1
#>  7     1      1  2.49     0
#>  8     1      1  2.74     0
#>  9     2      1  2.58     1
#> 10     3      1  1.69     1
#> # … with 990 more rows
```
…
