Simulated Example • DPH
…
      Model Fitting

      Accuracy Measures

      Simulated Example

      Source: vignettes/01-sim-example.Rmd
      01-sim-example.Rmd

library(DPH)

Here is a simulated example which shows you how to use DPH:

sim_data
#> # A tibble: 1,000 x 4
#>     time status pred1 pred2
#>    <int>  <int> <dbl> <int>
#>  1     5      1  1.37     1
#>  2     5      1  2.18     0
#>  3     1      1  1.16     0
#>  4     1      1  3.60     0
#>  5     2      1  2.33     1
#>  6     3      1  1.18     1
#>  7     1      1  2.49     0
#>  8     1      1  2.74     0
#>  9     2      1  2.58     1
#> 10     3      1  1.69     1
#> # … with 990 more rows
…
#>      time1      time2      time3      time4      time5 
#> 0.04757775 0.11519296 0.16058442 0.18542629 0.21688216 
#> 
#> $fit$lambda0_s
#>      time1      time2      time3      time4      time5 
#> 0.75283112 0.66533485 0.61717610 0.60687438 0.02205313 
#> 
#> $fit$AUC
#>     time1     time2     time3     time4     time5 
#> 0.8083280 0.8519472 0.8876893 0.9136772 0.9335047 
#> 
#> 
#> $ptb
#> $ptb$beta
#> # A tibble: 100 x 2
#>    pred1   pred2
#>    <dbl>   <dbl>
#>  1 1.18   0.0354
#>  2 0.944 -0.0903
#>  3 0.987  0.0185
#>  4 1.19   0.0722
#>  5 1.05  -0.131 
#>  6 1.12   0.0824
#>  7 1.04   0.0464
#>  8 1.19   0.131 
#>  9 0.892 -0.0518
#> 10 1.07  -0.114 
#> # … with 90 more rows
#> 
#> $ptb$lambda0
#> # A tibble: 100 x 5
#>     time1  time2 time3 time4 time5
#>     <dbl>  <dbl> <dbl> <dbl> <dbl>
#>  1 0.0413 0.124  0.129 0.218 0.371
#>  2 0.0497 0.119  0.147 0.190 0.256
#>  3 0.0561 0.144  0.178 0.222 0.219
#>  4 0.0386 0.0941 0.109 0.241 0.107
#>  5 0.0531 0.141  0.142 0.216 0.183
#>  6 0.0468 0.106  0.193 0.158 0.145
#>  7 0.0446 0.107  0.164 0.183 0.212
#>  8 0.0430 0.114  0.114 0.230 0.136
#>  9 0.0489 0.133  0.178 0.216 0.291
#> 10 0.0514 0.135  0.179 0.241 0.249
#> # … with 90 more rows
#> 
#> $ptb$lambda0_s
#> # A tibble: 100 x 5
#>    time1  time2   time3       time4    time5
#>    <dbl>  <dbl>   <dbl>       <dbl>    <dbl>
#>  1 0.692 0.605  0.626   0.520       5.19e- 4
#>  2 0.870 0.806  0.00243 0.449       1.78e-35
#>  3 0.731 0.538  0.858   0.000450    2.47e- 1
#>  4 0.700 0.697  0.644   0.618       8.87e- 2
#>  5 0.721 0.785  0.579   0.699       1.63e- 5
#>  6 0.727 0.536  0.935   0.000000181 8.53e-10
#>  7 0.748 0.631  0.809   0.405       2.50e- 4
#>  8 0.619 0.728  0.661   0.443       2.32e- 5
#>  9 0.929 0.0103 0.768   0.000248    2.49e- 4
#> 10 0.731 0.536  0.501   0.778       1.28e- 5
#> # … with 90 more rows
#> 
#> $ptb$AUC
#> # A tibble: 100 x 5
#>    time1 time2 time3 time4 time5
#>    <dbl> <dbl> <dbl> <dbl> <dbl>
#>  1 0.831 0.879 0.906 0.933 0.957
#>  2 0.780 0.822 0.857 0.888 0.915
#>  3 0.795 0.845 0.882 0.911 0.931
#>  4 0.832 0.872 0.899 0.933 0.942
#>  5 0.806 0.854 0.884 0.912 0.929
#>  6 0.822 0.863 0.905 0.925 0.938
#>  7 0.803 0.845 0.884 0.911 0.931
#>  8 0.836 0.882 0.907 0.936 0.947
#>  9 0.766 0.812 0.853 0.886 0.915
#> 10 0.811 0.859 0.894 0.923 0.941
#> # … with 90 more rows
…
