Simulated Example • DPH
…
      Model Fitting

      Accuracy Measures

      Simulated Example

      Source: vignettes/a1-sim-example.Rmd
      a1-sim-example.Rmd

library(DPH)

Here is a simulated example which shows you how to use DPH:

sim_data
#> # A tibble: 1,000 x 4
#>     time status pred1 pred2
#>    <int>  <int> <dbl> <int>
#>  1     5      1  1.37     1
#>  2     5      1  2.18     0
#>  3     1      1  1.16     0
#>  4     1      1  3.60     0
#>  5     2      1  2.33     1
#>  6     3      1  1.18     1
#>  7     1      1  2.49     0
#>  8     1      1  2.74     0
#>  9     2      1  2.58     1
#> 10     3      1  1.69     1
#> # … with 990 more rows
…
  pred = pred
)
#> $beta
#>      pred1      pred2 
#>  0.6756909 -0.0148435 
#> 
#> $lambda0
#>      time1      time2      time3      time4      time5 
#> 0.07721568 0.14293477 0.18430145 0.20137149 0.20908461 
#> 
#> $loglik
#> [1] -1432.959
#> 
#> $FPR
#> # A tibble: 1,000 x 6
#>    score_cut     time1        time2    time3    time4    time5
#>        <dbl>     <dbl>        <dbl>    <dbl>    <dbl>    <dbl>
#>  1      3.91 0.0000297 0.0000000392 6.73e-12 4.70e-16 2.13e-20
#>  2      3.40 0.000168  0.00000321   2.15e- 8 8.35e-11 2.45e-13
#>  3      3.14 0.000402  0.0000174    3.57e- 7 5.20e- 9 6.23e-11
#>  4      3.13 0.000644  0.0000329    7.54e- 7 1.18e- 8 1.49e-10
#>  5      3.04 0.000924  0.0000565    1.61e- 6 3.27e- 8 5.62e-10
#>  6      2.99 0.00123   0.0000859    2.90e- 6 7.12e- 8 1.50e- 9
#>  7      2.96 0.00154   0.000120     4.55e- 6 1.26e- 7 3.02e- 9
#>  8      2.92 0.00188   0.000158     6.68e- 6 2.08e- 7 5.61e- 9
#>  9      2.92 0.00221   0.000197     8.83e- 6 2.91e- 7 8.23e- 9
#> 10      2.92 0.00255   0.000237     1.11e- 5 3.78e- 7 1.10e- 8
#> # … with 990 more rows
#> 
#> $TPR
#> # A tibble: 1,000 x 6
#>    score_cut   time1   time2   time3   time4   time5
#>        <dbl>   <dbl>   <dbl>   <dbl>   <dbl>   <dbl>
#>  1      3.91 0.00340 0.00174 0.00133 0.00118 0.00111
#>  2      3.40 0.00653 0.00349 0.00267 0.00236 0.00222
#>  3      3.14 0.00942 0.00522 0.00400 0.00354 0.00333
#>  4      3.13 0.0123  0.00695 0.00533 0.00472 0.00444
#>  5      3.04 0.0151  0.00868 0.00666 0.00590 0.00555
#>  6      2.99 0.0178  0.0104  0.00800 0.00708 0.00666
#>  7      2.96 0.0205  0.0121  0.00933 0.00826 0.00776
#>  8      2.92 0.0231  0.0138  0.0107  0.00944 0.00887
#>  9      2.92 0.0258  0.0156  0.0120  0.0106  0.00998
#> 10      2.92 0.0284  0.0173  0.0133  0.0118  0.0111 
#> # … with 990 more rows
…
#> $lambda0
#>      time1      time2      time3      time4      time5 
#> 0.01943727 0.05806614 0.08947085 0.10380024 0.13166916 
#> 
#> $sens
#> [1] 0.8 0.8 0.8 0.8 0.8
#> 
#> $spec
#> [1] 0.9 0.9 0.9 0.9 0.9
#> 
#> $loglik
#> [1] -1426.434
#> 
#> $FPR
#> # A tibble: 1,000 x 6
#>    score_cut    time1    time2     time3     time4     time5
#>        <dbl>    <dbl>    <dbl>     <dbl>     <dbl>     <dbl>
#>  1      7.22 4.07e-15 2.36e-49 2.99e-102 1.07e-163 1.07e-241
#>  2      6.28 4.58e- 8 3.08e-21 1.12e- 41 1.81e- 65 1.06e- 95
#>  3      5.80 2.33e- 6 1.83e-14 4.38e- 27 8.36e- 42 1.57e- 60
#>  4      5.77 5.15e- 6 6.05e-14 3.10e- 26 1.64e- 40 1.23e- 58
#>  5      5.63 1.15e- 5 1.10e-12 2.64e- 23 1.13e- 35 2.03e- 51
#>  6      5.51 2.28e- 5 1.20e-11 4.17e- 21 4.11e- 32 3.98e- 46
#>  7      5.46 3.76e- 5 4.30e-11 4.40e- 20 1.66e- 30 9.36e- 44
#>  8      5.41 5.59e- 5 1.17e-10 3.06e- 19 3.59e- 29 8.82e- 42
#>  9      5.39 7.55e- 5 2.13e-10 7.56e- 19 1.18e- 28 4.09e- 41
#> 10      5.39 9.52e- 5 3.11e-10 1.23e- 18 2.07e- 28 7.71e- 41
#> # … with 990 more rows
#> 
#> $TPR
#> # A tibble: 1,000 x 6
#>    score_cut   time1   time2   time3   time4   time5
#>        <dbl>   <dbl>   <dbl>   <dbl>   <dbl>   <dbl>
#>  1      7.22 0.00345 0.00170 0.00133 0.00120 0.00112
#>  2      6.28 0.00690 0.00340 0.00266 0.00239 0.00225
#>  3      5.80 0.0103  0.00510 0.00399 0.00359 0.00337
#>  4      5.77 0.0138  0.00680 0.00532 0.00479 0.00450
#>  5      5.63 0.0172  0.00850 0.00665 0.00598 0.00562
#>  6      5.51 0.0206  0.0102  0.00798 0.00718 0.00675
#>  7      5.46 0.0240  0.0119  0.00931 0.00838 0.00787
#>  8      5.41 0.0274  0.0136  0.0106  0.00957 0.00900
#>  9      5.39 0.0308  0.0153  0.0120  0.0108  0.0101 
#> 10      5.39 0.0342  0.0170  0.0133  0.0120  0.0112 
#> # … with 990 more rows
…
#>       time1       time2       time3       time4       time5 
#> 0.009874818 0.043444473 0.071098836 0.089203140 0.110362112 
#> 
#> $sens
#>                                                             
#> 0.665699802 0.685004110 0.599455404 0.648976778 0.005736082 
#> 
#> $spec
#> [1] 0.9 0.9 0.9 0.9 0.9
#> 
#> $loglik
#> [1] -1412.578
#> 
#> $FPR
#> # A tibble: 1,000 x 6
#>    score_cut    time1     time2     time3     time4     time5
#>        <dbl>    <dbl>     <dbl>     <dbl>     <dbl>     <dbl>
#>  1      9.62 2.87e-68 0.        0.        0.        0.       
#>  2      8.37 4.05e-22 1.43e-103 4.10e-237 0.        0.       
#>  3      7.75 1.89e-13 9.34e- 57 7.15e-128 3.32e-217 0.       
#>  4      7.70 6.95e-13 1.88e- 54 1.67e-122 5.50e-208 8.20e-314
#>  5      7.44 7.70e-11 1.09e- 42 4.77e- 95 7.58e-161 2.55e-242
#>  6      7.37 3.31e-10 7.16e- 40 1.79e- 88 1.46e-149 3.34e-225
#>  7      7.29 1.11e- 9 3.00e- 37 2.35e- 82 4.69e-139 2.86e-209
#>  8      7.21 3.62e- 9 1.70e- 34 6.26e- 76 5.06e-128 1.54e-192
#>  9      7.21 6.19e- 9 3.63e- 34 1.47e- 75 1.34e-127 4.87e-192
#> 10      7.15 1.16e- 8 1.07e- 32 9.12e- 72 7.13e-121 1.07e-181
#> # … with 990 more rows
#> 
#> $TPR
#> # A tibble: 1,000 x 6
#>    score_cut   time1   time2   time3   time4   time5
#>        <dbl>   <dbl>   <dbl>   <dbl>   <dbl>   <dbl>
#>  1      9.62 0.00287 0.00151 0.00125 0.00115 0.00110
#>  2      8.37 0.00573 0.00301 0.00250 0.00230 0.00220
#>  3      7.75 0.00860 0.00452 0.00375 0.00346 0.00331
#>  4      7.70 0.0115  0.00603 0.00499 0.00461 0.00441
#>  5      7.44 0.0143  0.00753 0.00624 0.00576 0.00551
#>  6      7.37 0.0172  0.00904 0.00749 0.00691 0.00661
#>  7      7.29 0.0201  0.0105  0.00874 0.00807 0.00772
#>  8      7.21 0.0229  0.0121  0.00999 0.00922 0.00882
#>  9      7.21 0.0258  0.0136  0.0112  0.0104  0.00992
#> 10      7.15 0.0287  0.0151  0.0125  0.0115  0.0110 
#> # … with 990 more rows
…
#>      time1      time2      time3      time4      time5 
#> 0.05623982 0.12040684 0.16051766 0.17516386 0.20724498 
#> 
#> $sens
#> [1] 0.8 0.8 0.8 0.8 0.8
#> 
#> $spec
#>                                                   
#> 0.9995611 0.9978759 0.9999306 0.9927570 0.9928133 
#> 
#> $loglik
#> [1] -1417.455
#> 
#> $FPR
#> # A tibble: 1,000 x 6
#>    score_cut         time1    time2    time3    time4    time5
#>        <dbl>         <dbl>    <dbl>    <dbl>    <dbl>    <dbl>
#>  1      5.46 0.00000000293 2.98e-21 2.39e-37 5.63e-55 7.02e-76
#>  2      4.74 0.00000244    4.42e-12 7.65e-20 2.24e-28 1.60e-38
#>  3      4.38 0.0000196     2.02e- 9 9.12e-15 1.16e-20 1.09e-27
#>  4      4.36 0.0000387     4.89e- 9 2.70e-14 4.36e-20 5.67e-27
#>  5      4.25 0.0000688     1.68e- 8 2.95e-13 2.01e-18 1.49e-24
#>  6      4.17 0.000110      4.87e- 8 2.07e-12 3.67e-17 8.51e-23
#>  7      4.13 0.000158      9.99e- 8 6.44e-12 1.74e-16 6.62e-22
#>  8      4.08 0.000213      1.80e- 7 1.66e-11 6.66e-16 4.13e-21
#>  9      4.08 0.000270      2.65e- 7 2.83e-11 1.28e-15 8.84e-21
#> 10      4.08 0.000326      3.52e- 7 4.02e-11 1.91e-15 1.38e-20
#> # … with 990 more rows
#> 
#> $TPR
#> # A tibble: 1,000 x 6
#>    score_cut   time1   time2   time3   time4   time5
#>        <dbl>   <dbl>   <dbl>   <dbl>   <dbl>   <dbl>
#>  1      5.46 0.00279 0.00153 0.00124 0.00114 0.00108
#>  2      4.74 0.00557 0.00306 0.00249 0.00228 0.00217
#>  3      4.38 0.00832 0.00460 0.00373 0.00342 0.00325
#>  4      4.36 0.0111  0.00613 0.00498 0.00456 0.00434
#>  5      4.25 0.0138  0.00766 0.00622 0.00570 0.00542
#>  6      4.17 0.0165  0.00919 0.00747 0.00684 0.00651
#>  7      4.13 0.0192  0.0107  0.00871 0.00798 0.00759
#>  8      4.08 0.0219  0.0123  0.00996 0.00911 0.00868
#>  9      4.08 0.0246  0.0138  0.0112  0.0103  0.00976
#> 10      4.08 0.0273  0.0153  0.0124  0.0114  0.0108 
#> # … with 990 more rows
…
#> 0.03532949 0.09391220 0.14437736 0.15909091 0.16987526 
#> 
#> $sens
#>                                                                  
#> 7.139311e-01 6.808078e-01 6.110973e-01 6.372521e-01 1.302861e-06 
#> 
#> $spec
#>                                                   
#> 0.9788496 0.9712470 0.9999612 0.9771292 0.9496134 
#> 
#> $loglik
#> [1] -1407.176
#> 
#> $FPR
#> # A tibble: 1,000 x 6
#>    score_cut    time1    time2     time3     time4     time5
#>        <dbl>    <dbl>    <dbl>     <dbl>     <dbl>     <dbl>
#>  1      6.94 2.47e-19 4.28e-61 1.78e-125 1.66e-196 2.10e-272
#>  2      6.04 6.25e-10 1.06e-26 1.17e- 52 2.38e- 81 4.87e-112
#>  3      5.58 1.38e- 7 3.97e-18 1.65e- 34 1.19e- 52 4.53e- 72
#>  4      5.55 3.23e- 7 1.56e-17 1.77e- 33 4.46e- 51 6.79e- 70
#>  5      5.38 1.10e- 6 2.21e-15 1.06e- 28 1.82e- 43 2.79e- 59
#>  6      5.31 2.40e- 6 1.71e-14 6.15e- 27 1.09e- 40 2.06e- 55
#>  7      5.25 4.30e- 6 7.52e-14 1.15e- 25 1.06e- 38 1.19e- 52
#>  8      5.19 7.12e- 6 3.27e-13 2.52e- 24 1.43e- 36 1.10e- 49
#>  9      5.19 9.97e- 6 5.86e-13 5.09e- 24 2.99e- 36 2.36e- 49
#> 10      5.17 1.33e- 5 1.04e-12 1.34e- 23 1.30e- 35 1.91e- 48
#> # … with 990 more rows
#> 
#> $TPR
#> # A tibble: 1,000 x 6
#>    score_cut   time1   time2   time3   time4   time5
#>        <dbl>   <dbl>   <dbl>   <dbl>   <dbl>   <dbl>
#>  1      6.94 0.00258 0.00146 0.00121 0.00112 0.00108
#>  2      6.04 0.00516 0.00292 0.00241 0.00224 0.00216
#>  3      5.58 0.00774 0.00438 0.00362 0.00336 0.00323
#>  4      5.55 0.0103  0.00584 0.00482 0.00448 0.00431
#>  5      5.38 0.0129  0.00730 0.00603 0.00560 0.00539
#>  6      5.31 0.0155  0.00876 0.00723 0.00672 0.00647
#>  7      5.25 0.0181  0.0102  0.00844 0.00784 0.00755
#>  8      5.19 0.0206  0.0117  0.00965 0.00895 0.00863
#>  9      5.19 0.0232  0.0131  0.0109  0.0101  0.00970
#> 10      5.17 0.0258  0.0146  0.0121  0.0112  0.0108 
#> # … with 990 more rows
…
#> 
#> $fit$beta
#>       pred1       pred2 
#>  1.07083471 -0.02332944 
#> 
#> $fit$lambda0
#>     time1     time2     time3     time4     time5 
#> 0.0475508 0.1152488 0.1599523 0.1843778 0.2148209 
#> 
#> $fit$lambda0_s
#>       time1       time2       time3       time4       time5 
#> 0.743380875 0.674857434 0.614569251 0.618800219 0.002991268 
#> 
#> $fit$FPR
#> # A tibble: 1,000 x 6
#>    score_cut    time1    time2    time3     time4     time5
#>        <dbl>    <dbl>    <dbl>    <dbl>     <dbl>     <dbl>
#>  1      6.20 1.13e-13 5.23e-38 6.32e-72 4.17e-111 8.19e-157
#>  2      5.39 4.83e- 8 9.98e-19 1.06e-33 4.79e- 51 2.60e- 71
#>  3      4.98 1.63e- 6 1.52e-13 2.00e-23 6.73e- 35 2.53e- 48
#>  4      4.96 3.55e- 6 4.50e-13 9.51e-23 6.05e- 34 5.12e- 47
#>  5      4.82 8.15e- 6 6.39e-12 2.86e-20 6.08e- 30 2.87e- 41
#>  6      4.74 1.53e- 5 3.33e-11 5.98e-19 6.77e- 28 2.33e- 38
#>  7      4.69 2.45e- 5 9.77e-11 3.81e-18 1.09e- 26 1.14e- 36
#>  8      4.64 3.67e- 5 2.63e-10 2.47e-17 2.03e- 25 7.43e- 35
#>  9      4.63 4.89e- 5 4.32e-10 4.63e-17 4.07e- 25 1.54e- 34
#> 10      4.63 6.16e- 5 6.21e-10 7.35e-17 6.98e- 25 2.86e- 34
#> # … with 990 more rows
#> 
#> $fit$TPR
#> # A tibble: 1,000 x 6
#>    score_cut   time1   time2   time3   time4   time5
#>        <dbl>   <dbl>   <dbl>   <dbl>   <dbl>   <dbl>
#>  1      6.20 0.00257 0.00145 0.00121 0.00112 0.00107
#>  2      5.39 0.00515 0.00291 0.00241 0.00223 0.00214
#>  3      4.98 0.00772 0.00436 0.00362 0.00335 0.00321
#>  4      4.96 0.0103  0.00581 0.00483 0.00446 0.00428
#>  5      4.82 0.0129  0.00727 0.00603 0.00558 0.00535
#>  6      4.74 0.0154  0.00872 0.00724 0.00669 0.00642
#>  7      4.69 0.0180  0.0102  0.00845 0.00781 0.00749
#>  8      4.64 0.0205  0.0116  0.00965 0.00893 0.00857
#>  9      4.63 0.0231  0.0131  0.0109  0.0100  0.00964
#> 10      4.63 0.0256  0.0145  0.0121  0.0112  0.0107 
#> # … with 990 more rows
…
#> 
#> $fit$beta
#>       pred1       pred2 
#>  1.07083471 -0.02332944 
#> 
#> $fit$lambda0
#>     time1     time2     time3     time4     time5 
#> 0.0475508 0.1152488 0.1599523 0.1843778 0.2148209 
#> 
#> $fit$lambda0_s
#>       time1       time2       time3       time4       time5 
#> 0.743380875 0.674857434 0.614569251 0.618800219 0.002991268 
#> 
#> $fit$FPR
#> # A tibble: 1,000 x 6
#>    score_cut    time1    time2    time3     time4     time5
#>        <dbl>    <dbl>    <dbl>    <dbl>     <dbl>     <dbl>
#>  1      6.20 1.13e-13 5.23e-38 6.32e-72 4.17e-111 8.19e-157
#>  2      5.39 4.83e- 8 9.98e-19 1.06e-33 4.79e- 51 2.60e- 71
#>  3      4.98 1.63e- 6 1.52e-13 2.00e-23 6.73e- 35 2.53e- 48
#>  4      4.96 3.55e- 6 4.50e-13 9.51e-23 6.05e- 34 5.12e- 47
#>  5      4.82 8.15e- 6 6.39e-12 2.86e-20 6.08e- 30 2.87e- 41
#>  6      4.74 1.53e- 5 3.33e-11 5.98e-19 6.77e- 28 2.33e- 38
#>  7      4.69 2.45e- 5 9.77e-11 3.81e-18 1.09e- 26 1.14e- 36
#>  8      4.64 3.67e- 5 2.63e-10 2.47e-17 2.03e- 25 7.43e- 35
#>  9      4.63 4.89e- 5 4.32e-10 4.63e-17 4.07e- 25 1.54e- 34
#> 10      4.63 6.16e- 5 6.21e-10 7.35e-17 6.98e- 25 2.86e- 34
#> # … with 990 more rows
#> 
#> $fit$TPR
#> # A tibble: 1,000 x 6
#>    score_cut   time1   time2   time3   time4   time5
#>        <dbl>   <dbl>   <dbl>   <dbl>   <dbl>   <dbl>
#>  1      6.20 0.00257 0.00145 0.00121 0.00112 0.00107
#>  2      5.39 0.00515 0.00291 0.00241 0.00223 0.00214
#>  3      4.98 0.00772 0.00436 0.00362 0.00335 0.00321
#>  4      4.96 0.0103  0.00581 0.00483 0.00446 0.00428
#>  5      4.82 0.0129  0.00727 0.00603 0.00558 0.00535
#>  6      4.74 0.0154  0.00872 0.00724 0.00669 0.00642
#>  7      4.69 0.0180  0.0102  0.00845 0.00781 0.00749
#>  8      4.64 0.0205  0.0116  0.00965 0.00893 0.00857
#>  9      4.63 0.0231  0.0131  0.0109  0.0100  0.00964
#> 10      4.63 0.0256  0.0145  0.0121  0.0112  0.0107 
#> # … with 990 more rows
#> 
#> $fit$AUC
#>     time1     time2     time3     time4     time5 
#> 0.8103670 0.8540073 0.8893746 0.9149929 0.9344350 
#> 
#> 
#> $ptb
#> $ptb$weights
#> # A tibble: 1,000 x 10
#>       w1     w2    w3    w4     w5    w6    w7     w8    w9    w10
#>    <dbl>  <dbl> <dbl> <dbl>  <dbl> <dbl> <dbl>  <dbl> <dbl>  <dbl>
#>  1 0.755 1.01   0.637 0.427 0.357  0.165 0.504 0.829  0.479 0.840 
#>  2 1.18  0.0547 3.05  2.43  0.0910 2.84  1.19  0.744  0.308 0.718 
#>  3 0.146 0.880  3.53  1.03  1.95   0.385 0.219 0.0356 0.179 0.0796
#>  4 0.140 0.294  0.579 1.67  0.486  1.22  0.586 0.251  0.995 0.0606
#>  5 0.436 0.199  0.114 1.06  1.56   0.156 1.24  4.16   0.477 0.577 
#>  6 2.89  0.163  1.22  0.489 0.718  1.17  2.26  1.26   0.666 0.380 
#>  7 1.23  0.718  0.404 0.647 1.10   0.386 0.228 0.664  4.77  2.14  
#>  8 0.540 0.612  0.374 1.32  0.314  0.741 3.28  2.51   1.77  0.0931
#>  9 0.957 2.71   0.274 0.246 0.394  2.33  1.00  0.378  3.92  0.0403
#> 10 0.147 0.238  0.662 0.544 1.48   0.920 0.896 0.191  0.725 0.611 
#> # … with 990 more rows
…
