Simulated Example • DPH
…
      Model Fitting

      Simulated Example

      Simulated Example

      Source: vignettes/sim_example.Rmd
      sim_example.Rmd

library(DPH)

Here is a simulated example which shows you how to use DPH:

sim_data
#> # A tibble: 1,000 x 4
#>     time status pred1 pred2
#>    <int>  <int> <dbl> <int>
#>  1     5      1  1.37     1
#>  2     5      1  2.18     0
#>  3     1      1  1.16     0
#>  4     1      1  3.60     0
#>  5     2      1  2.33     1
#>  6     3      1  1.18     1
#>  7     1      1  2.49     0
#>  8     1      1  2.74     0
#>  9     2      1  2.58     1
#> 10     3      1  1.69     1
#> # … with 990 more rows
…
#> 0.04757775 0.11519296 0.16058442 0.18542629 0.21688216 
#> 
#> $lambda0_s
#>      time1      time2      time3      time4      time5 
#> 0.75283112 0.66533485 0.61717610 0.60687438 0.02205313 
#> 
#> $loglik
#> [1] -1407.704
#> 
#> $AUC
#>     time1     time2     time3     time4     time5 
#> 0.8083280 0.8519472 0.8876893 0.9136772 0.9335047 
#> 
#> $beta_ptb
#> # A tibble: 100 x 2
#>    pred1    pred2
#>    <dbl>    <dbl>
#>  1 1.18   0.0354 
#>  2 0.933 -0.102  
#>  3 1.06   0.0161 
#>  4 1.19   0.0705 
#>  5 1.05  -0.131  
#>  6 1.19   0.0778 
#>  7 1.04   0.0464 
#>  8 1.19   0.131  
#>  9 1.08   0.00867
#> 10 1.07  -0.113  
#> # … with 90 more rows
#> 
#> $lambda0_ptb
#> # A tibble: 100 x 5
#>     time1  time2 time3 time4 time5
#>     <dbl>  <dbl> <dbl> <dbl> <dbl>
#>  1 0.0413 0.124  0.129 0.219 0.371
#>  2 0.0459 0.115  0.151 0.188 0.254
#>  3 0.0551 0.147  0.164 0.219 0.215
#>  4 0.0386 0.0942 0.109 0.240 0.108
#>  5 0.0531 0.141  0.142 0.216 0.183
#>  6 0.0441 0.103  0.189 0.149 0.138
#>  7 0.0446 0.107  0.164 0.183 0.212
#>  8 0.0430 0.114  0.114 0.230 0.136
#>  9 0.0525 0.135  0.137 0.217 0.286
#> 10 0.0514 0.135  0.179 0.241 0.250
#> # … with 90 more rows
#> 
#> $lambda0_s_ptb
#> # A tibble: 100 x 5
#>    time1  time2 time3 time4     time5
#>    <dbl>  <dbl> <dbl> <dbl>     <dbl>
#>  1 0.692 0.605  0.626 0.520 0.0000199
#>  2 0.947 0.0662 0.623 0.241 0.00138  
#>  3 0.675 0.586  0.809 0.309 0.212    
#>  4 0.702 0.696  0.642 0.636 0.0227   
#>  5 0.721 0.785  0.579 0.699 0.0000259
#>  6 0.695 0.561  0.864 0.554 0.000171 
#>  7 0.746 0.633  0.807 0.412 0.000466 
#>  8 0.619 0.728  0.661 0.443 0.000174 
#>  9 0.665 0.770  0.609 0.409 0.0217   
#> 10 0.732 0.536  0.501 0.778 0.000504 
#> # … with 90 more rows
…
